
xiaoyou.png
size: 351,127
format: RGBA8888
filter: Linear,Linear
repeat: none
images/xu1
  rotate: false
  xy: 117, 0
  size: 117, 127
  orig: 117, 127
  offset: 0, 0
  index: -1
images/xu2
  rotate: false
  xy: 234, 0
  size: 117, 127
  orig: 117, 127
  offset: 0, 0
  index: -1
images/xy
  rotate: false
  xy: 0, 0
  size: 117, 127
  orig: 117, 127
  offset: 0, 0
  index: -1
